…
    ## # A tibble: 3 × 4
    ## # Groups:   iso_a3 [3]
    ##   iso_a3     v proportion country
    ##   <chr>  <dbl>      <dbl> <chr>  
    ## 1 CZE        3      0.423 Czechia
    ## 2 HRV        3      0.261 Croatia
    ## 3 JPN        3      0.498 Japan

# Between-country variation in beliefs

``` r
country_bars %>% filter(v==3)
```

    ## # A tibble: 60 × 4
    ## # Groups:   iso_a3 [60]
    ##    iso_a3     v proportion country    
    ##    <chr>  <dbl>      <dbl> <chr>      
    ##  1 AFG        3     0.0441 Afghanistan
    ##  2 ARG        3     0.0935 Argentina  
    ##  3 AUS        3     0.138  Australia  
    ##  4 BGD        3     0.166  Bangladesh 
    ##  5 BOL        3     0.0517 Bolivia    
    ##  6 BRA        3     0.101  Brazil     
    ##  7 CAN        3     0.116  Canada     
    ##  8 CHE        3     0.214  Switzerland
    ##  9 CHL        3     0.112  Chile      
    ## 10 CHN        3     0.198  China      
    ## # … with 50 more rows
…
